^C:\USERS\11411987\DOCUMENTS\VISUAL STUDIO 2015\PROJECTS\TEST\TEST\TEST.CPP
C:\USERS\11411987\DOCUMENTS\VISUAL STUDIO 2015\PROJECTS\TEST\TEST\DEBUG\VC140.PDB
C:\USERS\11411987\DOCUMENTS\VISUAL STUDIO 2015\PROJECTS\TEST\TEST\DEBUG\VC140.IDB
C:\USERS\11411987\DOCUMENTS\VISUAL STUDIO 2015\PROJECTS\TEST\TEST\DEBUG\TEST.OBJ
