^C:\USERS\11411987\DOCUMENTS\SY16T3-G-ENGN1-TG201-DUALAN-JOSEGASTON\EXERCISE 4,5\DEBUG\GAME.OBJ|C:\USERS\11411987\DOCUMENTS\SY16T3-G-ENGN1-TG201-DUALAN-JOSEGASTON\EXERCISE 4,5\DEBUG\MAP.OBJ|C:\USERS\11411987\DOCUMENTS\SY16T3-G-ENGN1-TG201-DUALAN-JOSEGASTON\EXERCISE 4,5\DEBUG\MONSTER.OBJ|C:\USERS\11411987\DOCUMENTS\SY16T3-G-ENGN1-TG201-DUALAN-JOSEGASTON\EXERCISE 4,5\DEBUG\PLAYER.OBJ|C:\USERS\11411987\DOCUMENTS\SY16T3-G-ENGN1-TG201-DUALAN-JOSEGASTON\EXERCISE 4,5\DEBUG\RANDOM.OBJ|C:\USERS\11411987\DOCUMENTS\SY16T3-G-ENGN1-TG201-DUALAN-JOSEGASTON\EXERCISE 4,5\DEBUG\UNIT.OBJ
/OUT:"DEBUG\RPG.EXE" /INCREMENTAL /NOLOGO KERNEL32.LIB USER32.LIB GDI32.LIB WINSPOOL.LIB COMDLG32.LIB ADVAPI32.LIB SHELL32.LIB OLE32.LIB OLEAUT32.LIB UUID.LIB ODBC32.LIB ODBCCP32.LIB /MANIFEST /MANIFESTUAC:"level='asInvoker' uiAccess='false'" /manifest:embed /Debug /PDB:"DEBUG\RPG.PDB" /SUBSYSTEM:CONSOLE /TLBID:1 /DYNAMICBASE /NXCOMPAT /IMPLIB:"DEBUG\RPG.LIB" /MACHINE:X86 /SAFESEH DEBUG\GAME.OBJDEBUG\MAP.OBJDEBUG\MONSTER.OBJDEBUG\PLAYER.OBJDEBUG\RANDOM.OBJDEBUG\UNIT.OBJ
^C:\USERS\GASTON\DOCUMENTS\GAMEENGINE1 2016\EXERCISE 4,5\DEBUG\GAME.OBJ|C:\USERS\GASTON\DOCUMENTS\GAMEENGINE1 2016\EXERCISE 4,5\DEBUG\MAP.OBJ|C:\USERS\GASTON\DOCUMENTS\GAMEENGINE1 2016\EXERCISE 4,5\DEBUG\MONSTER.OBJ|C:\USERS\GASTON\DOCUMENTS\GAMEENGINE1 2016\EXERCISE 4,5\DEBUG\PLAYER.OBJ|C:\USERS\GASTON\DOCUMENTS\GAMEENGINE1 2016\EXERCISE 4,5\DEBUG\RANDOM.OBJ|C:\USERS\GASTON\DOCUMENTS\GAMEENGINE1 2016\EXERCISE 4,5\DEBUG\UNIT.OBJ
/OUT:"DEBUG\RPG.EXE" /INCREMENTAL /NOLOGO KERNEL32.LIB USER32.LIB GDI32.LIB WINSPOOL.LIB COMDLG32.LIB ADVAPI32.LIB SHELL32.LIB OLE32.LIB OLEAUT32.LIB UUID.LIB ODBC32.LIB ODBCCP32.LIB /MANIFEST /MANIFESTUAC:"level='asInvoker' uiAccess='false'" /manifest:embed /Debug /PDB:"DEBUG\RPG.PDB" /SUBSYSTEM:CONSOLE /TLBID:1 /DYNAMICBASE /NXCOMPAT /IMPLIB:"DEBUG\RPG.LIB" /MACHINE:X86 /SAFESEH DEBUG\GAME.OBJDEBUG\MAP.OBJDEBUG\MONSTER.OBJDEBUG\PLAYER.OBJDEBUG\RANDOM.OBJDEBUG\UNIT.OBJ
