^C:\USERS\GASTON\DOCUMENTS\GAMEENGINE1 2016\EXERCISE 3\EXERCISE 3(GDDLAB COPY)\EXERCISE 3\X64\DEBUG\EXERCISE3.OBJ
/OUT:"C:\USERS\GASTON\DOCUMENTS\GAMEENGINE1 2016\EXERCISE 3\EXERCISE 3(GDDLAB COPY)\X64\DEBUG\EXERCISE 3.EXE" /INCREMENTAL /NOLOGO KERNEL32.LIB USER32.LIB GDI32.LIB WINSPOOL.LIB COMDLG32.LIB ADVAPI32.LIB SHELL32.LIB OLE32.LIB OLEAUT32.LIB UUID.LIB ODBC32.LIB ODBCCP32.LIB /MANIFEST /MANIFESTUAC:"level='asInvoker' uiAccess='false'" /manifest:embed /Debug /PDB:"C:\USERS\GASTON\DOCUMENTS\GAMEENGINE1 2016\EXERCISE 3\EXERCISE 3(GDDLAB COPY)\X64\DEBUG\EXERCISE 3.PDB" /TLBID:1 /DYNAMICBASE /NXCOMPAT /IMPLIB:"C:\USERS\GASTON\DOCUMENTS\GAMEENGINE1 2016\EXERCISE 3\EXERCISE 3(GDDLAB COPY)\X64\DEBUG\EXERCISE 3.LIB" /MACHINE:X64 X64\DEBUG\EXERCISE3.OBJ
^C:\USERS\11411987\DOCUMENTS\SY16T3-G-ENGN1-TG201-DUALAN-JOSEGASTON\EXERCISE 3\EXERCISE 3(GDDLAB COPY)\EXERCISE 3\X64\DEBUG\EXERCISE3.OBJ
/OUT:"C:\USERS\11411987\DOCUMENTS\SY16T3-G-ENGN1-TG201-DUALAN-JOSEGASTON\EXERCISE 3\EXERCISE 3(GDDLAB COPY)\X64\DEBUG\EXERCISE 3.EXE" /INCREMENTAL /NOLOGO KERNEL32.LIB USER32.LIB GDI32.LIB WINSPOOL.LIB COMDLG32.LIB ADVAPI32.LIB SHELL32.LIB OLE32.LIB OLEAUT32.LIB UUID.LIB ODBC32.LIB ODBCCP32.LIB /MANIFEST /MANIFESTUAC:"level='asInvoker' uiAccess='false'" /manifest:embed /Debug /PDB:"C:\USERS\11411987\DOCUMENTS\SY16T3-G-ENGN1-TG201-DUALAN-JOSEGASTON\EXERCISE 3\EXERCISE 3(GDDLAB COPY)\X64\DEBUG\EXERCISE 3.PDB" /TLBID:1 /DYNAMICBASE /NXCOMPAT /IMPLIB:"C:\USERS\11411987\DOCUMENTS\SY16T3-G-ENGN1-TG201-DUALAN-JOSEGASTON\EXERCISE 3\EXERCISE 3(GDDLAB COPY)\X64\DEBUG\EXERCISE 3.LIB" /MACHINE:X64 X64\DEBUG\EXERCISE3.OBJ
